{
  "common": {
    "lang": "uk"
  },
  "translations": {
    "Admin dashboard": "Адмінська панель",
    "Dashboard with general statistical information": "Панель з основними статистичними даними"
  },
  "navigation": {
    "modules": [
        {
          "title": "Admin dashboard",
          "icon": "dashboard",
          "link": "/admin"
        },
        {
          "title": "Site options",
          "icon": "options",
          "link": "/options"
        }
    ],
    "module": [
      {
        "title": "Home",
        "icon": "home",
        "link": "/"
      },
      {
        "title": "Sign Out",
        "icon": "sign out",
        "link": "/logout"
      }
    ]
  }
}
